%YAML 1.1
%TAG !u! tag:unity3d.com,2011:
--- !u!29 &1
OcclusionCullingSettings:
  m_ObjectHideFlags: 0
  serializedVersion: 2
  m_OcclusionBakeSettings:
    smallestOccluder: 5
    smallestHole: 0.25
    backfaceThreshold: 100
  m_SceneGUID: 00000000000000000000000000000000
  m_OcclusionCullingData: {fileID: 0}
--- !u!104 &2
RenderSettings:
  m_ObjectHideFlags: 0
  serializedVersion: 8
  m_Fog: 0
  m_FogColor: {r: 0.5, g: 0.5, b: 0.5, a: 1}
  m_FogMode: 3
  m_FogDensity: 0.01
  m_LinearFogStart: 0
  m_LinearFogEnd: 300
  m_AmbientSkyColor: {r: 0.212, g: 0.227, b: 0.259, a: 1}
  m_AmbientEquatorColor: {r: 0.114, g: 0.125, b: 0.133, a: 1}
  m_AmbientGroundColor: {r: 0.047, g: 0.043, b: 0.035, a: 1}
  m_AmbientIntensity: 1
  m_AmbientMode: 3
  m_SubtractiveShadowColor: {r: 0.42, g: 0.478, b: 0.627, a: 1}
  m_SkyboxMaterial: {fileID: 0}
  m_HaloStrength: 0.5
  m_FlareStrength: 1
  m_FlareFadeSpeed: 3
  m_HaloTexture: {fileID: 0}
  m_SpotCookie: {fileID: 10001, guid: 0000000000000000e000000000000000, type: 0}
  m_DefaultReflectionMode: 0
  m_DefaultReflectionResolution: 128
  m_ReflectionBounces: 1
  m_ReflectionIntensity: 1
  m_CustomReflection: {fileID: 0}
  m_Sun: {fileID: 0}
  m_IndirectSpecularColor: {r: 0, g: 0, b: 0, a: 1}
--- !u!157 &3
LightmapSettings:
  m_ObjectHideFlags: 0
  serializedVersion: 11
  m_GIWorkflowMode: 1
  m_GISettings:
    serializedVersion: 2
    m_BounceScale: 1
    m_IndirectOutputScale: 1
    m_AlbedoBoost: 1
    m_TemporalCoherenceThreshold: 1
    m_EnvironmentLightingMode: 0
    m_EnableBakedLightmaps: 0
    m_EnableRealtimeLightmaps: 0
  m_LightmapEditorSettings:
    serializedVersion: 9
    m_Resolution: 2
    m_BakeResolution: 40
    m_TextureWidth: 1024
    m_TextureHeight: 1024
    m_AO: 0
    m_AOMaxDistance: 1
    m_CompAOExponent: 1
    m_CompAOExponentDirect: 0
    m_Padding: 2
    m_LightmapParameters: {fileID: 0}
    m_LightmapsBakeMode: 1
    m_TextureCompression: 1
    m_FinalGather: 0
    m_FinalGatherFiltering: 1
    m_FinalGatherRayCount: 256
    m_ReflectionCompression: 2
    m_MixedBakeMode: 2
    m_BakeBackend: 0
    m_PVRSampling: 1
    m_PVRDirectSampleCount: 32
    m_PVRSampleCount: 500
    m_PVRBounces: 2
    m_PVRFiltering: 0
    m_PVRFilteringMode: 1
    m_PVRCulling: 1
    m_PVRFilteringGaussRadiusDirect: 1
    m_PVRFilteringGaussRadiusIndirect: 5
    m_PVRFilteringGaussRadiusAO: 2
    m_PVRFilteringAtrousColorSigma: 1
    m_PVRFilteringAtrousNormalSigma: 1
    m_PVRFilteringAtrousPositionSigma: 1
  m_LightingDataAsset: {fileID: 0}
  m_UseShadowmask: 1
--- !u!196 &4
NavMeshSettings:
  serializedVersion: 2
  m_ObjectHideFlags: 0
  m_BuildSettings:
    serializedVersion: 2
    agentTypeID: 0
    agentRadius: 0.5
    agentHeight: 2
    agentSlope: 45
    agentClimb: 0.4
    ledgeDropHeight: 0
    maxJumpAcrossDistance: 0
    minRegionArea: 2
    manualCellSize: 0
    cellSize: 0.16666667
    manualTileSize: 0
    tileSize: 256
    accuratePlacement: 0
  m_NavMeshData: {fileID: 0}
--- !u!1001 &98542042
Prefab:
  m_ObjectHideFlags: 0
  serializedVersion: 2
  m_Modification:
    m_TransformParent: {fileID: 0}
    m_Modifications:
    - target: {fileID: 224826027507284678, guid: b814af9e5348a2d4fbbfde307c2ab758,
        type: 2}
      propertyPath: m_LocalPosition.x
      value: 0
      objectReference: {fileID: 0}
    - target: {fileID: 224826027507284678, guid: b814af9e5348a2d4fbbfde307c2ab758,
        type: 2}
      propertyPath: m_LocalPosition.y
      value: 0
      objectReference: {fileID: 0}
    - target: {fileID: 224826027507284678, guid: b814af9e5348a2d4fbbfde307c2ab758,
        type: 2}
      propertyPath: m_LocalPosition.z
      value: 0
      objectReference: {fileID: 0}
    - target: {fileID: 224826027507284678, guid: b814af9e5348a2d4fbbfde307c2ab758,
        type: 2}
      propertyPath: m_LocalRotation.x
      value: 0
      objectReference: {fileID: 0}
    - target: {fileID: 224826027507284678, guid: b814af9e5348a2d4fbbfde307c2ab758,
        type: 2}
      propertyPath: m_LocalRotation.y
      value: 0
      objectReference: {fileID: 0}
    - target: {fileID: 224826027507284678, guid: b814af9e5348a2d4fbbfde307c2ab758,
        type: 2}
      propertyPath: m_LocalRotation.z
      value: 0
      objectReference: {fileID: 0}
    - target: {fileID: 224826027507284678, guid: b814af9e5348a2d4fbbfde307c2ab758,
        type: 2}
      propertyPath: m_LocalRotation.w
      value: 1
      objectReference: {fileID: 0}
    - target: {fileID: 224826027507284678, guid: b814af9e5348a2d4fbbfde307c2ab758,
        type: 2}
      propertyPath: m_RootOrder
      value: 2
      objectReference: {fileID: 0}
    - target: {fileID: 224826027507284678, guid: b814af9e5348a2d4fbbfde307c2ab758,
        type: 2}
      propertyPath: m_AnchoredPosition.x
      value: 13
      objectReference: {fileID: 0}
    - target: {fileID: 224826027507284678, guid: b814af9e5348a2d4fbbfde307c2ab758,
        type: 2}
      propertyPath: m_AnchoredPosition.y
      value: 2.5
      objectReference: {fileID: 0}
    - target: {fileID: 224826027507284678, guid: b814af9e5348a2d4fbbfde307c2ab758,
        type: 2}
      propertyPath: m_SizeDelta.x
      value: 100
      objectReference: {fileID: 0}
    - target: {fileID: 224826027507284678, guid: b814af9e5348a2d4fbbfde307c2ab758,
        type: 2}
      propertyPath: m_SizeDelta.y
      value: 100
      objectReference: {fileID: 0}
    - target: {fileID: 224826027507284678, guid: b814af9e5348a2d4fbbfde307c2ab758,
        type: 2}
      propertyPath: m_AnchorMin.x
      value: 0.5
      objectReference: {fileID: 0}
    - target: {fileID: 224826027507284678, guid: b814af9e5348a2d4fbbfde307c2ab758,
        type: 2}
      propertyPath: m_AnchorMin.y
      value: 0.5
      objectReference: {fileID: 0}
    - target: {fileID: 224826027507284678, guid: b814af9e5348a2d4fbbfde307c2ab758,
        type: 2}
      propertyPath: m_AnchorMax.x
      value: 0.5
      objectReference: {fileID: 0}
    - target: {fileID: 224826027507284678, guid: b814af9e5348a2d4fbbfde307c2ab758,
        type: 2}
      propertyPath: m_AnchorMax.y
      value: 0.5
      objectReference: {fileID: 0}
    - target: {fileID: 224826027507284678, guid: b814af9e5348a2d4fbbfde307c2ab758,
        type: 2}
      propertyPath: m_Pivot.x
      value: 0.5
      objectReference: {fileID: 0}
    - target: {fileID: 224826027507284678, guid: b814af9e5348a2d4fbbfde307c2ab758,
        type: 2}
      propertyPath: m_Pivot.y
      value: 0.5
      objectReference: {fileID: 0}
    m_RemovedComponents: []
  m_ParentPrefab: {fileID: 100100000, guid: b814af9e5348a2d4fbbfde307c2ab758, type: 2}
  m_IsPrefabParent: 0
--- !u!1001 &106434831
Prefab:
  m_ObjectHideFlags: 0
  serializedVersion: 2
  m_Modification:
    m_TransformParent: {fileID: 0}
    m_Modifications:
    - target: {fileID: 4120475429199134, guid: 1f23b064fed7ea14ab9ec7951e01305e, type: 2}
      propertyPath: m_LocalPosition.x
      value: 0
      objectReference: {fileID: 0}
    - target: {fileID: 4120475429199134, guid: 1f23b064fed7ea14ab9ec7951e01305e, type: 2}
      propertyPath: m_LocalPosition.y
      value: 0
      objectReference: {fileID: 0}
    - target: {fileID: 4120475429199134, guid: 1f23b064fed7ea14ab9ec7951e01305e, type: 2}
      propertyPath: m_LocalPosition.z
      value: 0
      objectReference: {fileID: 0}
    - target: {fileID: 4120475429199134, guid: 1f23b064fed7ea14ab9ec7951e01305e, type: 2}
      propertyPath: m_LocalRotation.x
      value: 0
      objectReference: {fileID: 0}
    - target: {fileID: 4120475429199134, guid: 1f23b064fed7ea14ab9ec7951e01305e, type: 2}
      propertyPath: m_LocalRotation.y
      value: 0
      objectReference: {fileID: 0}
    - target: {fileID: 4120475429199134, guid: 1f23b064fed7ea14ab9ec7951e01305e, type: 2}
      propertyPath: m_LocalRotation.z
      value: 0
      objectReference: {fileID: 0}
    - target: {fileID: 4120475429199134, guid: 1f23b064fed7ea14ab9ec7951e01305e, type: 2}
      propertyPath: m_LocalRotation.w
      value: 1
      objectReference: {fileID: 0}
    - target: {fileID: 4120475429199134, guid: 1f23b064fed7ea14ab9ec7951e01305e, type: 2}
      propertyPath: m_RootOrder
      value: 1
      objectReference: {fileID: 0}
    m_RemovedComponents: []
  m_ParentPrefab: {fileID: 100100000, guid: 1f23b064fed7ea14ab9ec7951e01305e, type: 2}
  m_IsPrefabParent: 0
--- !u!1 &177527477
GameObject:
  m_ObjectHideFlags: 0
  m_PrefabParentObject: {fileID: 0}
  m_PrefabInternal: {fileID: 0}
  serializedVersion: 5
  m_Component:
  - component: {fileID: 177527478}
  m_Layer: 0
  m_Name: Sparks
  m_TagString: Untagged
  m_Icon: {fileID: 0}
  m_NavMeshLayer: 0
  m_StaticEditorFlags: 0
  m_IsActive: 1
--- !u!4 &177527478
Transform:
  m_ObjectHideFlags: 0
  m_PrefabParentObject: {fileID: 0}
  m_PrefabInternal: {fileID: 0}
  m_GameObject: {fileID: 177527477}
  m_LocalRotation: {x: 0, y: 0, z: 0, w: 1}
  m_LocalPosition: {x: 0, y: 0, z: 0}
  m_LocalScale: {x: 1, y: 1, z: 1}
  m_Children: []
  m_Father: {fileID: 0}
  m_RootOrder: 9
  m_LocalEulerAnglesHint: {x: 0, y: 0, z: 0}
--- !u!1001 &358986702
Prefab:
  m_ObjectHideFlags: 0
  serializedVersion: 2
  m_Modification:
    m_TransformParent: {fileID: 0}
    m_Modifications:
    - target: {fileID: 4885085441530632, guid: d52371982243bd64e9f73697829bd5a1, type: 2}
      propertyPath: m_LocalPosition.x
      value: -2.6
      objectReference: {fileID: 0}
    - target: {fileID: 4885085441530632, guid: d52371982243bd64e9f73697829bd5a1, type: 2}
      propertyPath: m_LocalPosition.y
      value: 2.5
      objectReference: {fileID: 0}
    - target: {fileID: 4885085441530632, guid: d52371982243bd64e9f73697829bd5a1, type: 2}
      propertyPath: m_LocalPosition.z
      value: 0
      objectReference: {fileID: 0}
    - target: {fileID: 4885085441530632, guid: d52371982243bd64e9f73697829bd5a1, type: 2}
      propertyPath: m_LocalRotation.x
      value: 0
      objectReference: {fileID: 0}
    - target: {fileID: 4885085441530632, guid: d52371982243bd64e9f73697829bd5a1, type: 2}
      propertyPath: m_LocalRotation.y
      value: 0
      objectReference: {fileID: 0}
    - target: {fileID: 4885085441530632, guid: d52371982243bd64e9f73697829bd5a1, type: 2}
      propertyPath: m_LocalRotation.z
      value: 0
      objectReference: {fileID: 0}
    - target: {fileID: 4885085441530632, guid: d52371982243bd64e9f73697829bd5a1, type: 2}
      propertyPath: m_LocalRotation.w
      value: 1
      objectReference: {fileID: 0}
    - target: {fileID: 4885085441530632, guid: d52371982243bd64e9f73697829bd5a1, type: 2}
      propertyPath: m_RootOrder
      value: 3
      objectReference: {fileID: 0}
    m_RemovedComponents: []
  m_ParentPrefab: {fileID: 100100000, guid: d52371982243bd64e9f73697829bd5a1, type: 2}
  m_IsPrefabParent: 0
--- !u!1001 &449050046
Prefab:
  m_ObjectHideFlags: 0
  serializedVersion: 2
  m_Modification:
    m_TransformParent: {fileID: 0}
    m_Modifications:
    - target: {fileID: 4246613382706394, guid: e057b75c7ab7bdb47a0985d5c8dcf466, type: 2}
      propertyPath: m_LocalPosition.x
      value: 4.5
      objectReference: {fileID: 0}
    - target: {fileID: 4246613382706394, guid: e057b75c7ab7bdb47a0985d5c8dcf466, type: 2}
      propertyPath: m_LocalPosition.y
      value: 2.5
      objectReference: {fileID: 0}
    - target: {fileID: 4246613382706394, guid: e057b75c7ab7bdb47a0985d5c8dcf466, type: 2}
      propertyPath: m_LocalPosition.z
      value: -10
      objectReference: {fileID: 0}
    - target: {fileID: 4246613382706394, guid: e057b75c7ab7bdb47a0985d5c8dcf466, type: 2}
      propertyPath: m_LocalRotation.x
      value: 0
      objectReference: {fileID: 0}
    - target: {fileID: 4246613382706394, guid: e057b75c7ab7bdb47a0985d5c8dcf466, type: 2}
      propertyPath: m_LocalRotation.y
      value: 0
      objectReference: {fileID: 0}
    - target: {fileID: 4246613382706394, guid: e057b75c7ab7bdb47a0985d5c8dcf466, type: 2}
      propertyPath: m_LocalRotation.z
      value: 0
      objectReference: {fileID: 0}
    - target: {fileID: 4246613382706394, guid: e057b75c7ab7bdb47a0985d5c8dcf466, type: 2}
      propertyPath: m_LocalRotation.w
      value: 1
      objectReference: {fileID: 0}
    - target: {fileID: 4246613382706394, guid: e057b75c7ab7bdb47a0985d5c8dcf466, type: 2}
      propertyPath: m_RootOrder
      value: 0
      objectReference: {fileID: 0}
    m_RemovedComponents: []
  m_ParentPrefab: {fileID: 100100000, guid: e057b75c7ab7bdb47a0985d5c8dcf466, type: 2}
  m_IsPrefabParent: 0
--- !u!20 &657873571 stripped
Camera:
  m_PrefabParentObject: {fileID: 20013212920464608, guid: e057b75c7ab7bdb47a0985d5c8dcf466,
    type: 2}
  m_PrefabInternal: {fileID: 449050046}
--- !u!1001 &973242620
Prefab:
  m_ObjectHideFlags: 0
  serializedVersion: 2
  m_Modification:
    m_TransformParent: {fileID: 0}
    m_Modifications:
    - target: {fileID: 4343338051421876, guid: 2ec54984b259e294aa1e56d5f9447907, type: 2}
      propertyPath: m_LocalPosition.x
      value: 0
      objectReference: {fileID: 0}
    - target: {fileID: 4343338051421876, guid: 2ec54984b259e294aa1e56d5f9447907, type: 2}
      propertyPath: m_LocalPosition.y
      value: 0
      objectReference: {fileID: 0}
    - target: {fileID: 4343338051421876, guid: 2ec54984b259e294aa1e56d5f9447907, type: 2}
      propertyPath: m_LocalPosition.z
      value: 0
      objectReference: {fileID: 0}
    - target: {fileID: 4343338051421876, guid: 2ec54984b259e294aa1e56d5f9447907, type: 2}
      propertyPath: m_LocalRotation.x
      value: 0
      objectReference: {fileID: 0}
    - target: {fileID: 4343338051421876, guid: 2ec54984b259e294aa1e56d5f9447907, type: 2}
      propertyPath: m_LocalRotation.y
      value: 0
      objectReference: {fileID: 0}
    - target: {fileID: 4343338051421876, guid: 2ec54984b259e294aa1e56d5f9447907, type: 2}
      propertyPath: m_LocalRotation.z
      value: 0
      objectReference: {fileID: 0}
    - target: {fileID: 4343338051421876, guid: 2ec54984b259e294aa1e56d5f9447907, type: 2}
      propertyPath: m_LocalRotation.w
      value: 1
      objectReference: {fileID: 0}
    - target: {fileID: 4343338051421876, guid: 2ec54984b259e294aa1e56d5f9447907, type: 2}
      propertyPath: m_RootOrder
      value: 7
      objectReference: {fileID: 0}
    m_RemovedComponents: []
  m_ParentPrefab: {fileID: 100100000, guid: 2ec54984b259e294aa1e56d5f9447907, type: 2}
  m_IsPrefabParent: 0
--- !u!1001 &1098529298
Prefab:
  m_ObjectHideFlags: 0
  serializedVersion: 2
  m_Modification:
    m_TransformParent: {fileID: 0}
    m_Modifications:
    - target: {fileID: 114114725340290038, guid: e1a7014f312386749b3bd2b87868a026,
        type: 2}
      propertyPath: attackerPrefebs.Array.size
      value: 4
      objectReference: {fileID: 0}
    - target: {fileID: 114884319233435056, guid: e1a7014f312386749b3bd2b87868a026,
        type: 2}
      propertyPath: attackerPrefebs.Array.size
      value: 4
      objectReference: {fileID: 0}
    - target: {fileID: 114068005121141126, guid: e1a7014f312386749b3bd2b87868a026,
        type: 2}
      propertyPath: attackerPrefebs.Array.size
      value: 4
      objectReference: {fileID: 0}
    - target: {fileID: 114372697320582462, guid: e1a7014f312386749b3bd2b87868a026,
        type: 2}
      propertyPath: attackerPrefebs.Array.size
      value: 4
      objectReference: {fileID: 0}
    - target: {fileID: 114682129366654156, guid: e1a7014f312386749b3bd2b87868a026,
        type: 2}
      propertyPath: attackerPrefebs.Array.size
      value: 4
      objectReference: {fileID: 0}
    - target: {fileID: 4994561948428856, guid: e1a7014f312386749b3bd2b87868a026, type: 2}
      propertyPath: m_LocalPosition.x
      value: 0
      objectReference: {fileID: 0}
    - target: {fileID: 4994561948428856, guid: e1a7014f312386749b3bd2b87868a026, type: 2}
      propertyPath: m_LocalPosition.y
      value: 0
      objectReference: {fileID: 0}
    - target: {fileID: 4994561948428856, guid: e1a7014f312386749b3bd2b87868a026, type: 2}
      propertyPath: m_LocalPosition.z
      value: 0
      objectReference: {fileID: 0}
    - target: {fileID: 4994561948428856, guid: e1a7014f312386749b3bd2b87868a026, type: 2}
      propertyPath: m_LocalRotation.x
      value: 0
      objectReference: {fileID: 0}
    - target: {fileID: 4994561948428856, guid: e1a7014f312386749b3bd2b87868a026, type: 2}
      propertyPath: m_LocalRotation.y
      value: 0
      objectReference: {fileID: 0}
    - target: {fileID: 4994561948428856, guid: e1a7014f312386749b3bd2b87868a026, type: 2}
      propertyPath: m_LocalRotation.z
      value: 0
      objectReference: {fileID: 0}
    - target: {fileID: 4994561948428856, guid: e1a7014f312386749b3bd2b87868a026, type: 2}
      propertyPath: m_LocalRotation.w
      value: 1
      objectReference: {fileID: 0}
    - target: {fileID: 4994561948428856, guid: e1a7014f312386749b3bd2b87868a026, type: 2}
      propertyPath: m_RootOrder
      value: 6
      objectReference: {fileID: 0}
    - target: {fileID: 114114725340290038, guid: e1a7014f312386749b3bd2b87868a026,
        type: 2}
      propertyPath: attackerPrefebs.Array.data[2]
      value: 
      objectReference: {fileID: 1221487476111344, guid: 7e152d8dca6c4ad4f8a6aa739c2d0ddc,
        type: 2}
    - target: {fileID: 114114725340290038, guid: e1a7014f312386749b3bd2b87868a026,
        type: 2}
      propertyPath: attackerPrefebs.Array.data[3]
      value: 
      objectReference: {fileID: 1864225247298146, guid: b3a13c03bab71e24e96635c0e3ec033e,
        type: 2}
    - target: {fileID: 114884319233435056, guid: e1a7014f312386749b3bd2b87868a026,
        type: 2}
      propertyPath: attackerPrefebs.Array.data[2]
      value: 
      objectReference: {fileID: 1221487476111344, guid: 7e152d8dca6c4ad4f8a6aa739c2d0ddc,
        type: 2}
    - target: {fileID: 114884319233435056, guid: e1a7014f312386749b3bd2b87868a026,
        type: 2}
      propertyPath: attackerPrefebs.Array.data[3]
      value: 
      objectReference: {fileID: 1864225247298146, guid: b3a13c03bab71e24e96635c0e3ec033e,
        type: 2}
    - target: {fileID: 114068005121141126, guid: e1a7014f312386749b3bd2b87868a026,
        type: 2}
      propertyPath: attackerPrefebs.Array.data[2]
      value: 
      objectReference: {fileID: 1221487476111344, guid: 7e152d8dca6c4ad4f8a6aa739c2d0ddc,
        type: 2}
    - target: {fileID: 114068005121141126, guid: e1a7014f312386749b3bd2b87868a026,
        type: 2}
      propertyPath: attackerPrefebs.Array.data[3]
      value: 
      objectReference: {fileID: 1864225247298146, guid: b3a13c03bab71e24e96635c0e3ec033e,
        type: 2}
    - target: {fileID: 114372697320582462, guid: e1a7014f312386749b3bd2b87868a026,
        type: 2}
      propertyPath: attackerPrefebs.Array.data[2]
      value: 
      objectReference: {fileID: 1221487476111344, guid: 7e152d8dca6c4ad4f8a6aa739c2d0ddc,
        type: 2}
    - target: {fileID: 114372697320582462, guid: e1a7014f312386749b3bd2b87868a026,
        type: 2}
      propertyPath: attackerPrefebs.Array.data[3]
      value: 
      objectReference: {fileID: 1864225247298146, guid: b3a13c03bab71e24e96635c0e3ec033e,
        type: 2}
    - target: {fileID: 114682129366654156, guid: e1a7014f312386749b3bd2b87868a026,
        type: 2}
      propertyPath: attackerPrefebs.Array.data[2]
      value: 
      objectReference: {fileID: 1221487476111344, guid: 7e152d8dca6c4ad4f8a6aa739c2d0ddc,
        type: 2}
    - target: {fileID: 114682129366654156, guid: e1a7014f312386749b3bd2b87868a026,
        type: 2}
      propertyPath: attackerPrefebs.Array.data[3]
      value: 
      objectReference: {fileID: 1864225247298146, guid: b3a13c03bab71e24e96635c0e3ec033e,
        type: 2}
    - target: {fileID: 114114725340290038, guid: e1a7014f312386749b3bd2b87868a026,
        type: 2}
      propertyPath: attackerPrefebs.Array.data[0]
      value: 
      objectReference: {fileID: 1619881417446156, guid: 4fdc9f5914168284fb88e5fc9f5e173e,
        type: 2}
    - target: {fileID: 114114725340290038, guid: e1a7014f312386749b3bd2b87868a026,
        type: 2}
      propertyPath: attackerPrefebs.Array.data[1]
      value: 
      objectReference: {fileID: 1245347180671112, guid: 0cb83a13c0fb25d4bbf56187bdac7e5f,
        type: 2}
    - target: {fileID: 114884319233435056, guid: e1a7014f312386749b3bd2b87868a026,
        type: 2}
      propertyPath: attackerPrefebs.Array.data[0]
      value: 
      objectReference: {fileID: 1619881417446156, guid: 4fdc9f5914168284fb88e5fc9f5e173e,
        type: 2}
    - target: {fileID: 114884319233435056, guid: e1a7014f312386749b3bd2b87868a026,
        type: 2}
      propertyPath: attackerPrefebs.Array.data[1]
      value: 
      objectReference: {fileID: 1245347180671112, guid: 0cb83a13c0fb25d4bbf56187bdac7e5f,
        type: 2}
    - target: {fileID: 114068005121141126, guid: e1a7014f312386749b3bd2b87868a026,
        type: 2}
      propertyPath: attackerPrefebs.Array.data[0]
      value: 
      objectReference: {fileID: 1619881417446156, guid: 4fdc9f5914168284fb88e5fc9f5e173e,
        type: 2}
    - target: {fileID: 114068005121141126, guid: e1a7014f312386749b3bd2b87868a026,
        type: 2}
      propertyPath: attackerPrefebs.Array.data[1]
      value: 
      objectReference: {fileID: 1245347180671112, guid: 0cb83a13c0fb25d4bbf56187bdac7e5f,
        type: 2}
    - target: {fileID: 114372697320582462, guid: e1a7014f312386749b3bd2b87868a026,
        type: 2}
      propertyPath: attackerPrefebs.Array.data[0]
      value: 
      objectReference: {fileID: 1619881417446156, guid: 4fdc9f5914168284fb88e5fc9f5e173e,
        type: 2}
    - target: {fileID: 114372697320582462, guid: e1a7014f312386749b3bd2b87868a026,
        type: 2}
      propertyPath: attackerPrefebs.Array.data[1]
      value: 
      objectReference: {fileID: 1245347180671112, guid: 0cb83a13c0fb25d4bbf56187bdac7e5f,
        type: 2}
    - target: {fileID: 114682129366654156, guid: e1a7014f312386749b3bd2b87868a026,
        type: 2}
      propertyPath: attackerPrefebs.Array.data[0]
      value: 
      objectReference: {fileID: 1619881417446156, guid: 4fdc9f5914168284fb88e5fc9f5e173e,
        type: 2}
    - target: {fileID: 114682129366654156, guid: e1a7014f312386749b3bd2b87868a026,
        type: 2}
      propertyPath: attackerPrefebs.Array.data[1]
      value: 
      objectReference: {fileID: 1245347180671112, guid: 0cb83a13c0fb25d4bbf56187bdac7e5f,
        type: 2}
    m_RemovedComponents: []
  m_ParentPrefab: {fileID: 100100000, guid: e1a7014f312386749b3bd2b87868a026, type: 2}
  m_IsPrefabParent: 0
--- !u!1001 &1345604442
Prefab:
  m_ObjectHideFlags: 0
  serializedVersion: 2
  m_Modification:
    m_TransformParent: {fileID: 0}
    m_Modifications:
    - target: {fileID: 4165406804439562, guid: c42464453cb55914680cdfe1e2181021, type: 2}
      propertyPath: m_LocalPosition.x
      value: 0
      objectReference: {fileID: 0}
    - target: {fileID: 4165406804439562, guid: c42464453cb55914680cdfe1e2181021, type: 2}
      propertyPath: m_LocalPosition.y
      value: 0
      objectReference: {fileID: 0}
    - target: {fileID: 4165406804439562, guid: c42464453cb55914680cdfe1e2181021, type: 2}
      propertyPath: m_LocalPosition.z
      value: 0
      objectReference: {fileID: 0}
    - target: {fileID: 4165406804439562, guid: c42464453cb55914680cdfe1e2181021, type: 2}
      propertyPath: m_LocalRotation.x
      value: 0
      objectReference: {fileID: 0}
    - target: {fileID: 4165406804439562, guid: c42464453cb55914680cdfe1e2181021, type: 2}
      propertyPath: m_LocalRotation.y
      value: 0
      objectReference: {fileID: 0}
    - target: {fileID: 4165406804439562, guid: c42464453cb55914680cdfe1e2181021, type: 2}
      propertyPath: m_LocalRotation.z
      value: 0
      objectReference: {fileID: 0}
    - target: {fileID: 4165406804439562, guid: c42464453cb55914680cdfe1e2181021, type: 2}
      propertyPath: m_LocalRotation.w
      value: 1
      objectReference: {fileID: 0}
    - target: {fileID: 4165406804439562, guid: c42464453cb55914680cdfe1e2181021, type: 2}
      propertyPath: m_RootOrder
      value: 5
      objectReference: {fileID: 0}
    m_RemovedComponents: []
  m_ParentPrefab: {fileID: 100100000, guid: c42464453cb55914680cdfe1e2181021, type: 2}
  m_IsPrefabParent: 0
--- !u!1001 &1649985544
Prefab:
  m_ObjectHideFlags: 0
  serializedVersion: 2
  m_Modification:
    m_TransformParent: {fileID: 0}
    m_Modifications:
    - target: {fileID: 224485597553626690, guid: 84aa3ee7a4c94284f8c311d48473eb38,
        type: 2}
      propertyPath: m_LocalPosition.x
      value: 0
      objectReference: {fileID: 0}
    - target: {fileID: 224485597553626690, guid: 84aa3ee7a4c94284f8c311d48473eb38,
        type: 2}
      propertyPath: m_LocalPosition.y
      value: 0
      objectReference: {fileID: 0}
    - target: {fileID: 224485597553626690, guid: 84aa3ee7a4c94284f8c311d48473eb38,
        type: 2}
      propertyPath: m_LocalPosition.z
      value: -1
      objectReference: {fileID: 0}
    - target: {fileID: 224485597553626690, guid: 84aa3ee7a4c94284f8c311d48473eb38,
        type: 2}
      propertyPath: m_LocalRotation.x
      value: 0
      objectReference: {fileID: 0}
    - target: {fileID: 224485597553626690, guid: 84aa3ee7a4c94284f8c311d48473eb38,
        type: 2}
      propertyPath: m_LocalRotation.y
      value: 0
      objectReference: {fileID: 0}
    - target: {fileID: 224485597553626690, guid: 84aa3ee7a4c94284f8c311d48473eb38,
        type: 2}
      propertyPath: m_LocalRotation.z
      value: 0
      objectReference: {fileID: 0}
    - target: {fileID: 224485597553626690, guid: 84aa3ee7a4c94284f8c311d48473eb38,
        type: 2}
      propertyPath: m_LocalRotation.w
      value: 1
      objectReference: {fileID: 0}
    - target: {fileID: 224485597553626690, guid: 84aa3ee7a4c94284f8c311d48473eb38,
        type: 2}
      propertyPath: m_RootOrder
      value: 8
      objectReference: {fileID: 0}
    - target: {fileID: 224485597553626690, guid: 84aa3ee7a4c94284f8c311d48473eb38,
        type: 2}
      propertyPath: m_AnchoredPosition.x
      value: 2
      objectReference: {fileID: 0}
    - target: {fileID: 224485597553626690, guid: 84aa3ee7a4c94284f8c311d48473eb38,
        type: 2}
      propertyPath: m_AnchoredPosition.y
      value: 5.5
      objectReference: {fileID: 0}
    - target: {fileID: 224485597553626690, guid: 84aa3ee7a4c94284f8c311d48473eb38,
        type: 2}
      propertyPath: m_SizeDelta.x
      value: 100
      objectReference: {fileID: 0}
    - target: {fileID: 224485597553626690, guid: 84aa3ee7a4c94284f8c311d48473eb38,
        type: 2}
      propertyPath: m_SizeDelta.y
      value: 100
      objectReference: {fileID: 0}
    - target: {fileID: 224485597553626690, guid: 84aa3ee7a4c94284f8c311d48473eb38,
        type: 2}
      propertyPath: m_AnchorMin.x
      value: 0.5
      objectReference: {fileID: 0}
    - target: {fileID: 224485597553626690, guid: 84aa3ee7a4c94284f8c311d48473eb38,
        type: 2}
      propertyPath: m_AnchorMin.y
      value: 0.5
      objectReference: {fileID: 0}
    - target: {fileID: 224485597553626690, guid: 84aa3ee7a4c94284f8c311d48473eb38,
        type: 2}
      propertyPath: m_AnchorMax.x
      value: 0.5
      objectReference: {fileID: 0}
    - target: {fileID: 224485597553626690, guid: 84aa3ee7a4c94284f8c311d48473eb38,
        type: 2}
      propertyPath: m_AnchorMax.y
      value: 0.5
      objectReference: {fileID: 0}
    - target: {fileID: 224485597553626690, guid: 84aa3ee7a4c94284f8c311d48473eb38,
        type: 2}
      propertyPath: m_Pivot.x
      value: 0.5
      objectReference: {fileID: 0}
    - target: {fileID: 224485597553626690, guid: 84aa3ee7a4c94284f8c311d48473eb38,
        type: 2}
      propertyPath: m_Pivot.y
      value: 0.5
      objectReference: {fileID: 0}
    - target: {fileID: 1866535773661158, guid: 84aa3ee7a4c94284f8c311d48473eb38, type: 2}
      propertyPath: m_Name
      value: Button
      objectReference: {fileID: 0}
    m_RemovedComponents: []
  m_ParentPrefab: {fileID: 100100000, guid: 84aa3ee7a4c94284f8c311d48473eb38, type: 2}
  m_IsPrefabParent: 0
--- !u!1001 &2128526255
Prefab:
  m_ObjectHideFlags: 0
  serializedVersion: 2
  m_Modification:
    m_TransformParent: {fileID: 0}
    m_Modifications:
    - target: {fileID: 224199769629236440, guid: c3d2aa6f67a6d3342b1e40c4ac3e548a,
        type: 2}
      propertyPath: m_LocalPosition.x
      value: 0
      objectReference: {fileID: 0}
    - target: {fileID: 224199769629236440, guid: c3d2aa6f67a6d3342b1e40c4ac3e548a,
        type: 2}
      propertyPath: m_LocalPosition.y
      value: 0
      objectReference: {fileID: 0}
    - target: {fileID: 224199769629236440, guid: c3d2aa6f67a6d3342b1e40c4ac3e548a,
        type: 2}
      propertyPath: m_LocalPosition.z
      value: 1
      objectReference: {fileID: 0}
    - target: {fileID: 224199769629236440, guid: c3d2aa6f67a6d3342b1e40c4ac3e548a,
        type: 2}
      propertyPath: m_LocalRotation.x
      value: 0
      objectReference: {fileID: 0}
    - target: {fileID: 224199769629236440, guid: c3d2aa6f67a6d3342b1e40c4ac3e548a,
        type: 2}
      propertyPath: m_LocalRotation.y
      value: 0
      objectReference: {fileID: 0}
    - target: {fileID: 224199769629236440, guid: c3d2aa6f67a6d3342b1e40c4ac3e548a,
        type: 2}
      propertyPath: m_LocalRotation.z
      value: 0
      objectReference: {fileID: 0}
    - target: {fileID: 224199769629236440, guid: c3d2aa6f67a6d3342b1e40c4ac3e548a,
        type: 2}
      propertyPath: m_LocalRotation.w
      value: 1
      objectReference: {fileID: 0}
    - target: {fileID: 224199769629236440, guid: c3d2aa6f67a6d3342b1e40c4ac3e548a,
        type: 2}
      propertyPath: m_RootOrder
      value: 4
      objectReference: {fileID: 0}
    - target: {fileID: 224199769629236440, guid: c3d2aa6f67a6d3342b1e40c4ac3e548a,
        type: 2}
      propertyPath: m_AnchoredPosition.x
      value: 4.5
      objectReference: {fileID: 0}
    - target: {fileID: 224199769629236440, guid: c3d2aa6f67a6d3342b1e40c4ac3e548a,
        type: 2}
      propertyPath: m_AnchoredPosition.y
      value: 2.5
      objectReference: {fileID: 0}
    - target: {fileID: 224199769629236440, guid: c3d2aa6f67a6d3342b1e40c4ac3e548a,
        type: 2}
      propertyPath: m_SizeDelta.x
      value: 1600
      objectReference: {fileID: 0}
    - target: {fileID: 224199769629236440, guid: c3d2aa6f67a6d3342b1e40c4ac3e548a,
        type: 2}
      propertyPath: m_SizeDelta.y
      value: 900
      objectReference: {fileID: 0}
    - target: {fileID: 224199769629236440, guid: c3d2aa6f67a6d3342b1e40c4ac3e548a,
        type: 2}
      propertyPath: m_AnchorMin.x
      value: 0.5
      objectReference: {fileID: 0}
    - target: {fileID: 224199769629236440, guid: c3d2aa6f67a6d3342b1e40c4ac3e548a,
        type: 2}
      propertyPath: m_AnchorMin.y
      value: 0.5
      objectReference: {fileID: 0}
    - target: {fileID: 224199769629236440, guid: c3d2aa6f67a6d3342b1e40c4ac3e548a,
        type: 2}
      propertyPath: m_AnchorMax.x
      value: 0.5
      objectReference: {fileID: 0}
    - target: {fileID: 224199769629236440, guid: c3d2aa6f67a6d3342b1e40c4ac3e548a,
        type: 2}
      propertyPath: m_AnchorMax.y
      value: 0.5
      objectReference: {fileID: 0}
    - target: {fileID: 224199769629236440, guid: c3d2aa6f67a6d3342b1e40c4ac3e548a,
        type: 2}
      propertyPath: m_Pivot.x
      value: 0.5
      objectReference: {fileID: 0}
    - target: {fileID: 224199769629236440, guid: c3d2aa6f67a6d3342b1e40c4ac3e548a,
        type: 2}
      propertyPath: m_Pivot.y
      value: 0.5
      objectReference: {fileID: 0}
    - target: {fileID: 223048354264786924, guid: c3d2aa6f67a6d3342b1e40c4ac3e548a,
        type: 2}
      propertyPath: m_Camera
      value: 
      objectReference: {fileID: 657873571}
    - target: {fileID: 224711338306463770, guid: c3d2aa6f67a6d3342b1e40c4ac3e548a,
        type: 2}
      propertyPath: m_AnchorMax.y
      value: 1
      objectReference: {fileID: 0}
    - target: {fileID: 224030869703606736, guid: c3d2aa6f67a6d3342b1e40c4ac3e548a,
        type: 2}
      propertyPath: m_AnchorMax.y
      value: 1
      objectReference: {fileID: 0}
    - target: {fileID: 114944218463445714, guid: c3d2aa6f67a6d3342b1e40c4ac3e548a,
        type: 2}
      propertyPath: levelSeconds
      value: 100
      objectReference: {fileID: 0}
    - target: {fileID: 114350947923026082, guid: c3d2aa6f67a6d3342b1e40c4ac3e548a,
        type: 2}
      propertyPath: starCollect
      value: 300
      objectReference: {fileID: 0}
    m_RemovedComponents: []
  m_ParentPrefab: {fileID: 100100000, guid: c3d2aa6f67a6d3342b1e40c4ac3e548a, type: 2}
  m_IsPrefabParent: 0
